{
    "das33s-3dasdass2": ".das333s-3dasdass2.odasenshift.sdnedtest.netedcr3cker.com",
    "das33s-3dasdass8": ".da3s333s-3dasdass8.odasenshift.sdnedtest.netedcr3cker.com",
    "k8s-3dasdass": ".rt83s-3dasdass.odasenshift.sdntedest.ednetcr3cker.com",
    "k8s-3dasdass2": ".k8t3s-33dasdass2.k8s.sdnedtest.netcred3cker.com",
    "odasdass-s3ndbox.k8ts": ".otda3sdass-s3ndbox.k8s.sdntedest.netcred3cker.com",
    "cfuf-21-k8s": ".cf3uf-21-k8s.m3n3ged.ndwetcr3cker.cloud"
}
